consumer behavior
…
### :

count <- reviewword1 %>%
  anti_join(stop_words) %>%
  count(word) %>%
  arrange(desc(n))

## Joining, by = "word"

count %>% wordcloud2

count

## # A tibble: 17,013 x 2
##    word        n
##    <chr>   <int>
##  1 produto 18008
##  2 de      11267
##  3 nao     10559
##  4 prazo    8265
##  5 muito    7836
##  6 entrega  6441
##  7 antes    5533
##  8 chegou   5474
##  9 recebi   5168
## 10 bom      4520
## # ... with 17,003 more rows
…
### 
reviewword2 =reviewword1  %>%
  count(score, word, sort = TRUE)
total_words <- reviewword2 %>% 
  group_by(score) %>% 
  summarize(total = sum(n))

t_words <- left_join(reviewword2, total_words)

## Joining, by = "score"

t_words

## # A tibble: 31,725 x 4
##    score word          n  total
##    <int> <chr>     <int>  <int>
##  1     5 produto    7963 142573
##  2     1 nao        6008 125654
##  3     5 prazo      5569 142573
##  4     5 muito      5296 142573
##  5     1 produto    4861 125654
##  6     5 antes      4452 142573
##  7     1 de         3974 125654
##  8     5 de         3729 142573
##  9     5 entrega    3628 142573
## 10     5 recomendo  3227 142573
## # ... with 31,715 more rows

###()
t_words <-t_words  %>%
  bind_tf_idf(word,score, n)
t_words

## # A tibble: 31,725 x 7
##    score word          n  total     tf   idf tf_idf
##    <int> <chr>     <int>  <int>  <dbl> <dbl>  <dbl>
##  1     5 produto    7963 142573 0.0559     0      0
##  2     1 nao        6008 125654 0.0478     0      0
##  3     5 prazo      5569 142573 0.0391     0      0
##  4     5 muito      5296 142573 0.0371     0      0
##  5     1 produto    4861 125654 0.0387     0      0
##  6     5 antes      4452 142573 0.0312     0      0
##  7     1 de         3974 125654 0.0316     0      0
##  8     5 de         3729 142573 0.0262     0      0
##  9     5 entrega    3628 142573 0.0254     0      0
## 10     5 recomendo  3227 142573 0.0226     0      0
## # ... with 31,715 more rows

### tf-idf
t_words %>%
  select(-total) %>%
  arrange(desc(tf_idf))

## # A tibble: 31,725 x 6
##    score word           n       tf   idf   tf_idf
##    <int> <chr>      <int>    <dbl> <dbl>    <dbl>
##  1     5 otima        201 0.00141  0.223 0.000315
##  2     5 rapida       195 0.00137  0.223 0.000305
##  3     5 direitinho    73 0.000512 0.511 0.000262
##  4     5 adorou        70 0.000491 0.511 0.000251
##  5     5 excelentes    38 0.000267 0.916 0.000244
##  6     5 superou      143 0.00100  0.223 0.000224
##  7     4 direitinho    22 0.000423 0.511 0.000216
##  8     2 aussie         4 0.000131 1.61  0.000211
##  9     5 parabens     127 0.000891 0.223 0.000199
## 10     5 agradecer     29 0.000203 0.916 0.000186
## # ... with 31,715 more rows
…
